Quartus-VHDL/Project1/Problem2/simulation/qsim/lab3.msim.vcd
$comment
	File created using the following command:
		vcd file lab3.msim.vcd -direction
$end
$date
	Fri Apr 07 13:12:39 2017
$end
$version
	ModelSim Version 10.1d
$end
$timescale
	1ps
$end
$scope module lab3_vlg_vec_tst $end
$var reg 1 ! x1 $end
$var reg 1 " x2 $end
$var reg 1 # x3 $end
$var reg 1 $ x4 $end
$var wire 1 % f $end
$var wire 1 & sampler $end
$scope module i1 $end
$var wire 1 ' gnd $end
$var wire 1 ( vcc $end
$var wire 1 ) unknown $end
$var tri1 1 * devclrn $end
$var tri1 1 + devpor $end
$var tri1 1 , devoe $end
$var wire 1 - x3~combout $end
$var wire 1 . x4~combout $end
$var wire 1 / x1~combout $end
$var wire 1 0 x2~combout $end
$var wire 1 1 inst~0_combout $end
$upscope $end
$upscope $end
$enddefinitions $end
#0
$dumpvars
0!
0"
0#
0$
0%
x&
0'
1(
x)
1*
1+
1,
0-
0.
0/
00
01
$end
#10000
1$
1.
0&
#20000
1#
0$
1-
0.
1&
#30000
1$
1.
0&
#40000
1"
0#
0$
10
0-
0.
1&
11
1%
#50000
1$
1.
0&
01
0%
#60000
1#
0$
1-
0.
1&
#70000
1$
1.
0&
11
1%
#80000
1!
0"
0#
0$
1/
00
0-
0.
1&
#90000
1$
1.
0&
01
0%
#100000
1#
0$
1-
0.
1&
#110000
1$
1.
0&
11
1%
#120000
1"
0#
0$
10
0-
0.
1&
#130000
1$
1.
0&
01
0%
#140000
1#
0$
1-
0.
1&
#150000
1$
1.
0&
11
1%
